{
    "staticBase": [
        ["merge"],
        {
            "merge": ["https://github.com/JhonnyJason/root-template"]
        }
    ],
    "toolset": [
        ["submodule"],
        ["use"],
        {
            "use": ["https://github.com/JhonnyJason/toolset"]
        }
    ],
    "sources": [
        ["submodule"],
        ["merge", "create"],
        {
            "create": ["sources"],
            "merge": ["https://github.com/JhonnyJason/app-sample-sources", "*"]
        }
    ],
    "output": [
        ["directory"],
        ["create"],
        {
            "create": ["appoutput"]
        }
    ],
    "testing": [
        ["directory"],
        ["merge"],
        {
            "merge": ["https://gitlab.com/lenny09918050/lenny-unlicense"]
        }
    ]
}